(i__main__
LogFile
p0
(dp1
S'_installed_files'
p2
(dp3
S'../../../../../../../../../cvmfs/atlas.cern.ch/repo/sw/software/x86_64-slc6-gcc47-opt/19.2.5/GAUDI/v25r3p1/GaudiPolicy/cmt/fragments/__init__.py'
p4
S'../../InstallArea/python/DCHValidation/__init__.py'
p5
sS'../../../DCHValidation/x86_64-slc6-gcc47-opt/libDCHValidation.so'
p6
S'../../InstallArea/x86_64-slc6-gcc47-opt/lib/libDCHValidation.so'
p7
sS'../../DCHValidation/genConf/DCHValidation'
p8
(dp9
S'../../../DCHValidation/genConf/DCHValidation/DCHValidationConf.py'
p10
S'../../InstallArea/python/DCHValidation/DCHValidationConf.py'
p11
ssS'../../../DCHValidation/x86_64-slc6-gcc47-opt/libDCHValidation.so.debug'
p12
S'../../InstallArea/x86_64-slc6-gcc47-opt/lib/libDCHValidation.so.debug'
p13
ssb.