{
  "argValues": {
    "athenaopts": [
      "--preloadlib=/cvmfs/atlas.cern.ch/repo/sw/software/x86_64-slc6-gcc47-opt/19.2.5/sw/IntelSoftware/linux/x86_64/xe2013/composer_xe_2013.3.163/compiler/lib/intel64/libintlc.so.5:/cvmfs/atlas.cern.ch/repo/sw/software/x86_64-slc6-gcc47-opt/19.2.5/sw/IntelSoftware/linux/x86_64/xe2013/composer_xe_2013.3.163/compiler/lib/intel64/libimf.so"
    ], 
    "ecmEnergy": 13000.0, 
    "firstEvent": 1, 
    "generatorJobNumber": 0, 
    "generatorRunMode": "run", 
    "jobConfig": {
      "all": [
        "DCH300MixedTauHadLep.py"
      ]
    }, 
    "maxEvents": {
      "all": 500
    }, 
    "outputEVNTFile": [
      "DCH300MixedTauHadLep.EVNT.pool.root"
    ], 
    "printEvts": 5, 
    "randomSeed": {
      "all": 1234
    }, 
    "runNumber": 301528
  }, 
  "cmdLine": "'/cvmfs/atlas.cern.ch/repo/sw/software/x86_64-slc6-gcc47-opt/19.2.5/AtlasProduction/19.2.5.27/InstallArea/share/bin/Generate_tf.py' '--ecmEnergy=13000' '--firstEvent=1' '--randomSeed=1234' '--runNumber=301528' '--maxEvents=500' '--jobConfig=DCH300MixedTauHadLep.py' '--outputEVNTFile=DCH300MixedTauHadLep.EVNT.pool.root'", 
  "created": "2017-12-08T16:28:31", 
  "executor": [
    {
      "asetup": null, 
      "errMsg": "Non-zero return code from generate (2)", 
      "exeConfig": {
        "outputs": [
          "EVNT"
        ], 
        "script": "athena.py", 
        "substep": null
      }, 
      "logfileReport": {
        "countSummary": {
          "CRITICAL": 0, 
          "DEBUG": 0, 
          "ERROR": 0, 
          "FATAL": 1, 
          "IGNORED": 0, 
          "INFO": 9, 
          "UNKNOWN": 3, 
          "VERBOSE": 0, 
          "WARNING": 0
        }, 
        "details": {
          "FATAL": [
            {
              "count": 1, 
              "firstLine": 16, 
              "message": "IncludeError: include file DCH300MixedTauHadLep.py can not be found"
            }
          ]
        }
      }, 
      "metaData": {}, 
      "name": "generate", 
      "rc": 2, 
      "statusOK": false, 
      "validation": false
    }
  ], 
  "exitAcronym": "TRF_EXEC_FAIL", 
  "exitCode": 65, 
  "exitMsg": "Non-zero return code from generate (2); Logfile error in log.generate: \"IncludeError: include file DCH300MixedTauHadLep.py can not be found\"", 
  "exitMsgExtra": "", 
  "files": {
    "input": [], 
    "output": [
      {
        "argName": "outputEVNTFile", 
        "dataset": null, 
        "subFiles": [
          {
            "AODFixVersion": null, 
            "beam_energy": null, 
            "beam_type": null, 
            "conditions_tag": null, 
            "file_guid": null, 
            "file_size": null, 
            "file_type": null, 
            "geometry": null, 
            "integrity": null, 
            "lumi_block": null, 
            "name": "DCH300MixedTauHadLep.EVNT.pool.root", 
            "nentries": null, 
            "run_number": null
          }
        ], 
        "type": "EVNT"
      }
    ]
  }, 
  "name": "Generate_tf", 
  "reportVersion": "1.0.1", 
  "resource": {
    "executor": {
      "generate": {
        "cpuTime": 2, 
        "wallTime": 5
      }
    }, 
    "machine": {
      "cpu_family": "6", 
      "linux_distribution": [
        "Scientific Linux CERN SLC", 
        "6.9", 
        "Carbon"
      ], 
      "model": "60", 
      "model_name": "Intel Core Processor (Haswell, no TSX)", 
      "node": "lxplus037.cern.ch", 
      "platform": "Linux-2.6.32-696.16.1.el6.x86_64-x86_64-with-redhat-6.9-Carbon"
    }, 
    "transform": {
      "cpuTime": 1, 
      "externalCpuTime": 1, 
      "wallTime": 12
    }
  }
}