300	1.391e-11	2.680e-14	6.348e-12	1.802e-14	2.026e-11	3.229e-14 
400	4.114e-12	7.916e-15	1.890e-12	5.360e-15	6.004e-12	9.560e-15 
500	1.491e-12	2.845e-15	6.886e-13	1.942e-15	2.179e-12	3.444e-15 
600	6.151e-13	1.161e-15	2.849e-13	7.944e-16	9.000e-13	1.407e-15 
700	2.769e-13	5.186e-16	1.293e-13	3.556e-16	4.062e-13	6.288e-16 
800	1.332e-13	2.478e-16	6.245e-14	1.700e-16	1.956e-13	3.005e-16 
900	6.736e-14	1.250e-16	3.171e-14	8.567e-17	9.907e-14	1.515e-16 
1000	3.533e-14	6.552e-17	1.671e-14	4.498e-17	5.204e-14	7.948e-17 
1100	1.913e-14	3.535e-17	9.110e-15	2.445e-17	2.824e-14	4.298e-17 
1200	1.062e-14	1.955e-17	5.084e-15	1.356e-17	1.570e-14	2.379e-17 
1300	6.008e-15	1.101e-17	2.882e-15	7.646e-18	8.890e-15	1.341e-17
